 
 Device is  GeForce GTX TITAN X  GPU from  NVIDIA Corporation  with a max of 24 compute units 
work group, work item information
 max loc dim  1024  1024  64 
 Max work group size = 1024
This system uses 8 bytes per array element.
-------------------------------------------------------------
Array size = 50000000 (elements), Offset = 0 (elements)
Memory per array = 381.5 MiB (= 0.4 GiB).
Total memory required = 1144.4 MiB (= 1.1 GiB).
Each kernel will be executed 10 times.
 The *best* time for each kernel (excluding the first iteration)
 will be used to compute the reported bandwidth.
-------------------------------------------------------------
Your clock granularity appears to be less than one microsecond.
Each test below will take on the order of 148838 microseconds.
   (= 148838 clock ticks)
Increase the size of the arrays if this shows that
you are not getting at least 20 clock ticks per test.
-------------------------------------------------------------
WARNING -- The above is only a rough guideline.
For best results, please be sure you know the
precision of your system timer.
-------------------------------------------------------------
Function    Best Rate MB/s  Avg time     Min time     Max time
Copy:          204997.1     0.015615     0.015610     0.015620
Scale:         205379.8     0.015590     0.015581     0.015612
Add:           207725.6     0.015437     0.015405     0.015546
Triad:         205025.2     0.015626     0.015608     0.015642
-------------------------------------------------------------
time is 0.177200 sec
pmax = 1664.288197
-------------------------------------------------------------
grayscale time is 0.304666 sec
grayscale Gflops is 2.382149 
-------------------------------------------------------------
 10240 work-groups of size 256. 1342177280 Integration steps

The calculation ran in   33.420478 seconds
 pi = 3.675288 for 1342177280 steps
-------------------------------------------------------------
knn time is: 4.810747
-------------------------------------------------------------
Time start 140737488.342880 
Time end 206158.430216 
OpenCl Execution time is: 18446603542379.641 milliseconds 
Matrix multiplication of dimensions 2500 x 2500 x 2500
Matrix multiplication runtime: 0.289435 seconds
-------------------------------------------------------------
Time start 140737488.342880 
Time end 206158.430216 
OpenCl Execution time is: 18446603542379.641 milliseconds 
Matrix multiplication of dimensions 2500 x 2500 x 2500
Matrix multiplication runtime: 0.289971 seconds
-------------------------------------------------------------
Time start 140737488.342880 
Time end 206158.430216 
OpenCl Execution time is: 18446603542379.641 milliseconds 
Matrix multiplication of dimensions 2500 x 2500 x 2500
Matrix multiplication runtime: 0.289475 seconds
-------------------------------------------------------------
Average runtime: 0.289627  GFLOPS: 107.897371
 
 Device is  GeForce GTX TITAN X  GPU from  NVIDIA Corporation  with a max of 24 compute units 
work group, work item information
 max loc dim  1024  1024  64 
 Max work group size = 1024
This system uses 8 bytes per array element.
-------------------------------------------------------------
Array size = 50000000 (elements), Offset = 0 (elements)
Memory per array = 381.5 MiB (= 0.4 GiB).
Total memory required = 1144.4 MiB (= 1.1 GiB).
Each kernel will be executed 10 times.
 The *best* time for each kernel (excluding the first iteration)
 will be used to compute the reported bandwidth.
-------------------------------------------------------------
Your clock granularity appears to be less than one microsecond.
Each test below will take on the order of 148338 microseconds.
   (= 148338 clock ticks)
Increase the size of the arrays if this shows that
you are not getting at least 20 clock ticks per test.
-------------------------------------------------------------
WARNING -- The above is only a rough guideline.
For best results, please be sure you know the
precision of your system timer.
-------------------------------------------------------------
Function    Best Rate MB/s  Avg time     Min time     Max time
Copy:          205656.7     0.015564     0.015560     0.015573
Scale:         205338.9     0.015597     0.015584     0.015642
Add:           204984.5     0.015615     0.015611     0.015625
Triad:         205128.7     0.015609     0.015600     0.015668
-------------------------------------------------------------
time is 0.177571 sec
pmax = 1660.811187
-------------------------------------------------------------
grayscale time is 0.304510 sec
grayscale Gflops is 2.383369 
-------------------------------------------------------------
 10240 work-groups of size 256. 1342177280 Integration steps

The calculation ran in   33.335287 seconds
 pi = 3.674567 for 1342177280 steps
-------------------------------------------------------------
knn time is: 4.811186
-------------------------------------------------------------
Time start 140737488.342880 
Time end 206158.430216 
OpenCl Execution time is: 18446603542379.641 milliseconds 
Matrix multiplication of dimensions 2500 x 2500 x 2500
Matrix multiplication runtime: 0.289848 seconds
-------------------------------------------------------------
Time start 140737488.342880 
Time end 206158.430216 
OpenCl Execution time is: 18446603542379.641 milliseconds 
Matrix multiplication of dimensions 2500 x 2500 x 2500
Matrix multiplication runtime: 0.290359 seconds
-------------------------------------------------------------
Time start 140737488.342880 
Time end 206158.430216 
OpenCl Execution time is: 18446603542379.641 milliseconds 
Matrix multiplication of dimensions 2500 x 2500 x 2500
Matrix multiplication runtime: 0.289596 seconds
-------------------------------------------------------------
Average runtime: 0.289934  GFLOPS: 107.783033
 
 Device is  GeForce GTX TITAN X  GPU from  NVIDIA Corporation  with a max of 24 compute units 
work group, work item information
 max loc dim  1024  1024  64 
 Max work group size = 1024
This system uses 8 bytes per array element.
-------------------------------------------------------------
Array size = 50000000 (elements), Offset = 0 (elements)
Memory per array = 381.5 MiB (= 0.4 GiB).
Total memory required = 1144.4 MiB (= 1.1 GiB).
Each kernel will be executed 10 times.
 The *best* time for each kernel (excluding the first iteration)
 will be used to compute the reported bandwidth.
-------------------------------------------------------------
Your clock granularity appears to be less than one microsecond.
Each test below will take on the order of 173271 microseconds.
   (= 173271 clock ticks)
Increase the size of the arrays if this shows that
you are not getting at least 20 clock ticks per test.
-------------------------------------------------------------
WARNING -- The above is only a rough guideline.
For best results, please be sure you know the
precision of your system timer.
-------------------------------------------------------------
Function    Best Rate MB/s  Avg time     Min time     Max time
Copy:          117819.6     0.028073     0.027160     0.030884
Scale:         104632.8     0.030768     0.030583     0.030893
Add:           101083.6     0.031842     0.031657     0.031959
Triad:         115435.3     0.030600     0.027721     0.031312
-------------------------------------------------------------
time is 0.176646 sec
pmax = 1669.508563
-------------------------------------------------------------
grayscale time is 0.410915 sec
grayscale Gflops is 1.766204 
-------------------------------------------------------------
 10240 work-groups of size 256. 1342177280 Integration steps

The calculation ran in   32.864689 seconds
 pi = 3.675597 for 1342177280 steps
-------------------------------------------------------------
knn time is: 4.842589
-------------------------------------------------------------
Time start 140737488.342880 
Time end 206158.430216 
OpenCl Execution time is: 18446603542379.641 milliseconds 
Matrix multiplication of dimensions 2500 x 2500 x 2500
Matrix multiplication runtime: 0.295134 seconds
-------------------------------------------------------------
Time start 140737488.342880 
Time end 206158.430216 
OpenCl Execution time is: 18446603542379.641 milliseconds 
Matrix multiplication of dimensions 2500 x 2500 x 2500
Matrix multiplication runtime: 0.295274 seconds
-------------------------------------------------------------
Time start 140737488.342880 
Time end 206158.430216 
OpenCl Execution time is: 18446603542379.641 milliseconds 
Matrix multiplication of dimensions 2500 x 2500 x 2500
Matrix multiplication runtime: 0.295185 seconds
-------------------------------------------------------------
Average runtime: 0.295198  GFLOPS: 105.861249
 
 Device is  GeForce GTX TITAN X  GPU from  NVIDIA Corporation  with a max of 24 compute units 
work group, work item information
 max loc dim  1024  1024  64 
 Max work group size = 1024
This system uses 8 bytes per array element.
-------------------------------------------------------------
Array size = 50000000 (elements), Offset = 0 (elements)
Memory per array = 381.5 MiB (= 0.4 GiB).
Total memory required = 1144.4 MiB (= 1.1 GiB).
Each kernel will be executed 10 times.
 The *best* time for each kernel (excluding the first iteration)
 will be used to compute the reported bandwidth.
-------------------------------------------------------------
Your clock granularity appears to be less than one microsecond.
Each test below will take on the order of 173403 microseconds.
   (= 173403 clock ticks)
Increase the size of the arrays if this shows that
you are not getting at least 20 clock ticks per test.
-------------------------------------------------------------
WARNING -- The above is only a rough guideline.
For best results, please be sure you know the
precision of your system timer.
-------------------------------------------------------------
Function    Best Rate MB/s  Avg time     Min time     Max time
Copy:          103671.1     0.031110     0.030867     0.031275
Scale:         109036.8     0.030641     0.029348     0.030973
Add:           102633.3     0.031422     0.031179     0.031543
Triad:         101144.5     0.031831     0.031638     0.031924
-------------------------------------------------------------
time is 0.177396 sec
pmax = 1662.451793
-------------------------------------------------------------
grayscale time is 0.412287 sec
grayscale Gflops is 1.760327 
-------------------------------------------------------------
 10240 work-groups of size 256. 1342177280 Integration steps

The calculation ran in   33.296101 seconds
 pi = 3.674057 for 1342177280 steps
-------------------------------------------------------------
knn time is: 5.405350
-------------------------------------------------------------
Time start 140737488.342880 
Time end 206158.430216 
OpenCl Execution time is: 18446603542379.641 milliseconds 
Matrix multiplication of dimensions 2500 x 2500 x 2500
Matrix multiplication runtime: 0.290182 seconds
-------------------------------------------------------------
Time start 140737488.342880 
Time end 206158.430216 
OpenCl Execution time is: 18446603542379.641 milliseconds 
Matrix multiplication of dimensions 2500 x 2500 x 2500
Matrix multiplication runtime: 0.289773 seconds
-------------------------------------------------------------
Time start 140737488.342880 
Time end 206158.430216 
OpenCl Execution time is: 18446603542379.641 milliseconds 
Matrix multiplication of dimensions 2500 x 2500 x 2500
Matrix multiplication runtime: 0.289760 seconds
-------------------------------------------------------------
Average runtime: 0.289905  GFLOPS: 107.793936






titanX OCL








 
 Device is  GeForce GTX TITAN X  GPU from  NVIDIA Corporation  with a max of 24 compute units 
work group, work item information
 max loc dim  1024  1024  64 
 Max work group size = 1024
This system uses 8 bytes per array element.
-------------------------------------------------------------
Array size = 50000000 (elements), Offset = 0 (elements)
Memory per array = 381.5 MiB (= 0.4 GiB).
Total memory required = 1144.4 MiB (= 1.1 GiB).
Each kernel will be executed 10 times.
 The *best* time for each kernel (excluding the first iteration)
 will be used to compute the reported bandwidth.
-------------------------------------------------------------
Your clock granularity appears to be less than one microsecond.
Each test below will take on the order of 148569 microseconds.
   (= 148569 clock ticks)
Increase the size of the arrays if this shows that
you are not getting at least 20 clock ticks per test.
-------------------------------------------------------------
WARNING -- The above is only a rough guideline.
For best results, please be sure you know the
precision of your system timer.
-------------------------------------------------------------
Function    Best Rate MB/s  Avg time     Min time     Max time
Copy:          205483.5     0.015647     0.015573     0.015840
Scale:         206784.7     0.015479     0.015475     0.015487
Add:           205310.6     0.015591     0.015586     0.015606
Triad:         205207.1     0.015602     0.015594     0.015638
-------------------------------------------------------------
time is 0.177386 sec
pmax = 1662.543405
-------------------------------------------------------------
grayscale time is 0.413758 sec
grayscale Gflops is 1.754069 
-------------------------------------------------------------
 10240 work-groups of size 256. 1342177280 Integration steps

The calculation ran in    0.005505 seconds
 pi = 3.141593 for 1342177280 steps
-------------------------------------------------------------
knn time is: 4.803406
-------------------------------------------------------------
Time start 140737488.342864 
Time end 206158.430216 
OpenCl Execution time is: 18446603542379.641 milliseconds 
Matrix multiplication of dimensions 2500 x 2500 x 2500
Matrix multiplication runtime: 0.034914 seconds
-------------------------------------------------------------
Time start 140737488.342864 
Time end 206158.430216 
OpenCl Execution time is: 18446603542379.641 milliseconds 
Matrix multiplication of dimensions 2500 x 2500 x 2500
Matrix multiplication runtime: 0.000385 seconds
-------------------------------------------------------------
Time start 140737488.342864 
Time end 206158.430216 
OpenCl Execution time is: 18446603542379.641 milliseconds 
Matrix multiplication of dimensions 2500 x 2500 x 2500
Matrix multiplication runtime: 0.000408 seconds
-------------------------------------------------------------
Average runtime: 0.011902  GFLOPS: 2625.518305
 
 Device is  GeForce GTX TITAN X  GPU from  NVIDIA Corporation  with a max of 24 compute units 
work group, work item information
 max loc dim  1024  1024  64 
 Max work group size = 1024
This system uses 8 bytes per array element.
-------------------------------------------------------------
Array size = 50000000 (elements), Offset = 0 (elements)
Memory per array = 381.5 MiB (= 0.4 GiB).
Total memory required = 1144.4 MiB (= 1.1 GiB).
Each kernel will be executed 10 times.
 The *best* time for each kernel (excluding the first iteration)
 will be used to compute the reported bandwidth.
-------------------------------------------------------------
Your clock granularity appears to be less than one microsecond.
Each test below will take on the order of 172799 microseconds.
   (= 172799 clock ticks)
Increase the size of the arrays if this shows that
you are not getting at least 20 clock ticks per test.
-------------------------------------------------------------
WARNING -- The above is only a rough guideline.
For best results, please be sure you know the
precision of your system timer.
-------------------------------------------------------------
Function    Best Rate MB/s  Avg time     Min time     Max time
Copy:          107834.9     0.029799     0.029675     0.029926
Scale:         105308.5     0.030509     0.030387     0.030684
Add:           106262.3     0.030277     0.030114     0.030451
Triad:         103185.7     0.031128     0.031012     0.031246
-------------------------------------------------------------
time is 0.177399 sec
pmax = 1662.420513
-------------------------------------------------------------
grayscale time is 0.312881 sec
grayscale Gflops is 2.319604 
-------------------------------------------------------------
 10240 work-groups of size 256. 1342177280 Integration steps

The calculation ran in    0.005430 seconds
 pi = 3.141593 for 1342177280 steps
-------------------------------------------------------------
knn time is: 4.840199
-------------------------------------------------------------
Time start 140737488.342864 
Time end 206158.430216 
OpenCl Execution time is: 18446603542379.641 milliseconds 
Matrix multiplication of dimensions 2500 x 2500 x 2500
Matrix multiplication runtime: 0.031859 seconds
-------------------------------------------------------------
Time start 140737488.342864 
Time end 206158.430216 
OpenCl Execution time is: 18446603542379.641 milliseconds 
Matrix multiplication of dimensions 2500 x 2500 x 2500
Matrix multiplication runtime: 0.000426 seconds
-------------------------------------------------------------
Time start 140737488.342864 
Time end 206158.430216 
OpenCl Execution time is: 18446603542379.641 milliseconds 
Matrix multiplication of dimensions 2500 x 2500 x 2500
Matrix multiplication runtime: 0.000403 seconds
-------------------------------------------------------------
Average runtime: 0.010896  GFLOPS: 2868.033522
 
 Device is  GeForce GTX TITAN X  GPU from  NVIDIA Corporation  with a max of 24 compute units 
work group, work item information
 max loc dim  1024  1024  64 
 Max work group size = 1024
This system uses 8 bytes per array element.
-------------------------------------------------------------
Array size = 50000000 (elements), Offset = 0 (elements)
Memory per array = 381.5 MiB (= 0.4 GiB).
Total memory required = 1144.4 MiB (= 1.1 GiB).
Each kernel will be executed 10 times.
 The *best* time for each kernel (excluding the first iteration)
 will be used to compute the reported bandwidth.
-------------------------------------------------------------
Your clock granularity appears to be less than one microsecond.
Each test below will take on the order of 172140 microseconds.
   (= 172140 clock ticks)
Increase the size of the arrays if this shows that
you are not getting at least 20 clock ticks per test.
-------------------------------------------------------------
WARNING -- The above is only a rough guideline.
For best results, please be sure you know the
precision of your system timer.
-------------------------------------------------------------
Function    Best Rate MB/s  Avg time     Min time     Max time
Copy:          118540.7     0.029933     0.026995     0.030801
Scale:         100930.8     0.031820     0.031705     0.031876
Add:           105152.5     0.031044     0.030432     0.031336
Triad:          68604.8     0.046771     0.046644     0.047155
-------------------------------------------------------------
time is 0.177402 sec
pmax = 1662.393702
-------------------------------------------------------------
grayscale time is 0.312261 sec
grayscale Gflops is 2.324209 
-------------------------------------------------------------
 10240 work-groups of size 256. 1342177280 Integration steps

The calculation ran in    0.005443 seconds
 pi = 3.141593 for 1342177280 steps
-------------------------------------------------------------
knn time is: 5.528216
-------------------------------------------------------------
Time start 140737488.342864 
Time end 206158.430216 
OpenCl Execution time is: 18446603542379.641 milliseconds 
Matrix multiplication of dimensions 2500 x 2500 x 2500
Matrix multiplication runtime: 0.038524 seconds
-------------------------------------------------------------
Time start 140737488.342864 
Time end 206158.430216 
OpenCl Execution time is: 18446603542379.641 milliseconds 
Matrix multiplication of dimensions 2500 x 2500 x 2500
Matrix multiplication runtime: 0.000479 seconds
-------------------------------------------------------------
Time start 140737488.342864 
Time end 206158.430216 
OpenCl Execution time is: 18446603542379.641 milliseconds 
Matrix multiplication of dimensions 2500 x 2500 x 2500
Matrix multiplication runtime: 0.000429 seconds
-------------------------------------------------------------
Average runtime: 0.013144  GFLOPS: 2377.493334
 
 Device is  GeForce GTX TITAN X  GPU from  NVIDIA Corporation  with a max of 24 compute units 
work group, work item information
 max loc dim  1024  1024  64 
 Max work group size = 1024
This system uses 8 bytes per array element.
-------------------------------------------------------------
Array size = 50000000 (elements), Offset = 0 (elements)
Memory per array = 381.5 MiB (= 0.4 GiB).
Total memory required = 1144.4 MiB (= 1.1 GiB).
Each kernel will be executed 10 times.
 The *best* time for each kernel (excluding the first iteration)
 will be used to compute the reported bandwidth.
-------------------------------------------------------------
Your clock granularity appears to be less than one microsecond.
Each test below will take on the order of 165454 microseconds.
   (= 165454 clock ticks)
Increase the size of the arrays if this shows that
you are not getting at least 20 clock ticks per test.
-------------------------------------------------------------
WARNING -- The above is only a rough guideline.
For best results, please be sure you know the
precision of your system timer.
-------------------------------------------------------------
Function    Best Rate MB/s  Avg time     Min time     Max time
Copy:          107440.4     0.030361     0.029784     0.030622
Scale:         107411.1     0.030941     0.029792     0.031272
Add:           116495.3     0.028296     0.027469     0.031195
Triad:         107321.0     0.030551     0.029817     0.030754
-------------------------------------------------------------
time is 0.177405 sec
pmax = 1662.366893
-------------------------------------------------------------
grayscale time is 0.407574 sec
grayscale Gflops is 1.780683 
-------------------------------------------------------------
 10240 work-groups of size 256. 1342177280 Integration steps

The calculation ran in    0.005495 seconds
 pi = 3.141593 for 1342177280 steps
-------------------------------------------------------------
knn time is: 5.362069
-------------------------------------------------------------
Time start 140737488.342864 
Time end 206158.430216 
OpenCl Execution time is: 18446603542379.641 milliseconds 
Matrix multiplication of dimensions 2500 x 2500 x 2500
Matrix multiplication runtime: 0.038642 seconds
-------------------------------------------------------------
Time start 140737488.342864 
Time end 206158.430216 
OpenCl Execution time is: 18446603542379.641 milliseconds 
Matrix multiplication of dimensions 2500 x 2500 x 2500
Matrix multiplication runtime: 0.000508 seconds
-------------------------------------------------------------
Time start 140737488.342864 
Time end 206158.430216 
OpenCl Execution time is: 18446603542379.641 milliseconds 
Matrix multiplication of dimensions 2500 x 2500 x 2500
Matrix multiplication runtime: 0.000445 seconds
-------------------------------------------------------------
Average runtime: 0.013198  GFLOPS: 2367.715597






TitanXp MCL








 
 Device is  TITAN X (Pascal)  GPU from  NVIDIA Corporation  with a max of 28 compute units 
work group, work item information
 max loc dim  1024  1024  64 
 Max work group size = 1024
This system uses 8 bytes per array element.
-------------------------------------------------------------
Array size = 50000000 (elements), Offset = 0 (elements)
Memory per array = 381.5 MiB (= 0.4 GiB).
Total memory required = 1144.4 MiB (= 1.1 GiB).
Each kernel will be executed 10 times.
 The *best* time for each kernel (excluding the first iteration)
 will be used to compute the reported bandwidth.
-------------------------------------------------------------
Your clock granularity appears to be less than one microsecond.
Each test below will take on the order of 147220 microseconds.
   (= 147220 clock ticks)
Increase the size of the arrays if this shows that
you are not getting at least 20 clock ticks per test.
-------------------------------------------------------------
WARNING -- The above is only a rough guideline.
For best results, please be sure you know the
precision of your system timer.
-------------------------------------------------------------
Function    Best Rate MB/s  Avg time     Min time     Max time
Copy:          206546.0     0.015506     0.015493     0.015518
Scale:         206517.4     0.015506     0.015495     0.015527
Add:           206705.1     0.015486     0.015481     0.015496
Triad:         206800.6     0.015478     0.015474     0.015488
-------------------------------------------------------------
time is 0.104697 sec
pmax = 3286.283618
-------------------------------------------------------------
grayscale time is 0.300079 sec
grayscale Gflops is 2.418562 
-------------------------------------------------------------
 10240 work-groups of size 256. 1342177280 Integration steps

The calculation ran in   19.184770 seconds
 pi = 3.677132 for 1342177280 steps
-------------------------------------------------------------
knn time is: 4.538686
-------------------------------------------------------------
Time start 140737488.342880 
Time end 206158.430216 
OpenCl Execution time is: 18446603542379.641 milliseconds 
Matrix multiplication of dimensions 2500 x 2500 x 2500
Matrix multiplication runtime: 0.252577 seconds
-------------------------------------------------------------
Time start 140737488.342880 
Time end 206158.430216 
OpenCl Execution time is: 18446603542379.641 milliseconds 
Matrix multiplication of dimensions 2500 x 2500 x 2500
Matrix multiplication runtime: 0.252098 seconds
-------------------------------------------------------------
Time start 140737488.342880 
Time end 206158.430216 
OpenCl Execution time is: 18446603542379.641 milliseconds 
Matrix multiplication of dimensions 2500 x 2500 x 2500
Matrix multiplication runtime: 0.252061 seconds
-------------------------------------------------------------
Average runtime: 0.252245  GFLOPS: 123.887320
 
 Device is  TITAN X (Pascal)  GPU from  NVIDIA Corporation  with a max of 28 compute units 
work group, work item information
 max loc dim  1024  1024  64 
 Max work group size = 1024
This system uses 8 bytes per array element.
-------------------------------------------------------------
Array size = 50000000 (elements), Offset = 0 (elements)
Memory per array = 381.5 MiB (= 0.4 GiB).
Total memory required = 1144.4 MiB (= 1.1 GiB).
Each kernel will be executed 10 times.
 The *best* time for each kernel (excluding the first iteration)
 will be used to compute the reported bandwidth.
-------------------------------------------------------------
Your clock granularity appears to be less than one microsecond.
Each test below will take on the order of 147112 microseconds.
   (= 147112 clock ticks)
Increase the size of the arrays if this shows that
you are not getting at least 20 clock ticks per test.
-------------------------------------------------------------
WARNING -- The above is only a rough guideline.
For best results, please be sure you know the
precision of your system timer.
-------------------------------------------------------------
Function    Best Rate MB/s  Avg time     Min time     Max time
Copy:          206546.0     0.015504     0.015493     0.015539
Scale:         206797.4     0.015480     0.015474     0.015493
Add:           206810.2     0.015476     0.015473     0.015484
Triad:         206813.4     0.015477     0.015473     0.015489
-------------------------------------------------------------
time is 0.105400 sec
pmax = 3264.361680
-------------------------------------------------------------
grayscale time is 0.298801 sec
grayscale Gflops is 2.428908 
-------------------------------------------------------------
 10240 work-groups of size 256. 1342177280 Integration steps

The calculation ran in   19.082840 seconds
 pi = 3.677056 for 1342177280 steps
-------------------------------------------------------------
knn time is: 4.687164
-------------------------------------------------------------
Time start 140737488.342880 
Time end 206158.430216 
OpenCl Execution time is: 18446603542379.641 milliseconds 
Matrix multiplication of dimensions 2500 x 2500 x 2500
Matrix multiplication runtime: 0.248334 seconds
-------------------------------------------------------------
Time start 140737488.342880 
Time end 206158.430216 
OpenCl Execution time is: 18446603542379.641 milliseconds 
Matrix multiplication of dimensions 2500 x 2500 x 2500
Matrix multiplication runtime: 0.246892 seconds
-------------------------------------------------------------
Time start 140737488.342880 
Time end 206158.430216 
OpenCl Execution time is: 18446603542379.641 milliseconds 
Matrix multiplication of dimensions 2500 x 2500 x 2500
Matrix multiplication runtime: 0.246870 seconds
-------------------------------------------------------------
Average runtime: 0.247365  GFLOPS: 126.331414
 
 Device is  TITAN X (Pascal)  GPU from  NVIDIA Corporation  with a max of 28 compute units 
work group, work item information
 max loc dim  1024  1024  64 
 Max work group size = 1024
This system uses 8 bytes per array element.
-------------------------------------------------------------
Array size = 50000000 (elements), Offset = 0 (elements)
Memory per array = 381.5 MiB (= 0.4 GiB).
Total memory required = 1144.4 MiB (= 1.1 GiB).
Each kernel will be executed 10 times.
 The *best* time for each kernel (excluding the first iteration)
 will be used to compute the reported bandwidth.
-------------------------------------------------------------
Your clock granularity appears to be less than one microsecond.
Each test below will take on the order of 147418 microseconds.
   (= 147418 clock ticks)
Increase the size of the arrays if this shows that
you are not getting at least 20 clock ticks per test.
-------------------------------------------------------------
WARNING -- The above is only a rough guideline.
For best results, please be sure you know the
precision of your system timer.
-------------------------------------------------------------
Function    Best Rate MB/s  Avg time     Min time     Max time
Copy:          206533.3     0.015504     0.015494     0.015523
Scale:         206558.7     0.015501     0.015492     0.015539
Add:           206771.9     0.015490     0.015476     0.015520
Triad:         206784.7     0.015480     0.015475     0.015504
-------------------------------------------------------------
time is 0.106108 sec
pmax = 3242.584550
-------------------------------------------------------------
grayscale time is 0.298360 sec
grayscale Gflops is 2.432499 
-------------------------------------------------------------
 10240 work-groups of size 256. 1342177280 Integration steps

The calculation ran in   19.372061 seconds
 pi = 3.674743 for 1342177280 steps
-------------------------------------------------------------
knn time is: 4.722910
-------------------------------------------------------------
Time start 140737488.342880 
Time end 206158.430216 
OpenCl Execution time is: 18446603542379.641 milliseconds 
Matrix multiplication of dimensions 2500 x 2500 x 2500
Matrix multiplication runtime: 0.246581 seconds
-------------------------------------------------------------
Time start 140737488.342880 
Time end 206158.430216 
OpenCl Execution time is: 18446603542379.641 milliseconds 
Matrix multiplication of dimensions 2500 x 2500 x 2500
Matrix multiplication runtime: 0.246547 seconds
-------------------------------------------------------------
Time start 140737488.342880 
Time end 206158.430216 
OpenCl Execution time is: 18446603542379.641 milliseconds 
Matrix multiplication of dimensions 2500 x 2500 x 2500
Matrix multiplication runtime: 0.246804 seconds
-------------------------------------------------------------
Average runtime: 0.246644  GFLOPS: 126.700862
 
 Device is  TITAN X (Pascal)  GPU from  NVIDIA Corporation  with a max of 28 compute units 
work group, work item information
 max loc dim  1024  1024  64 
 Max work group size = 1024
This system uses 8 bytes per array element.
-------------------------------------------------------------
Array size = 50000000 (elements), Offset = 0 (elements)
Memory per array = 381.5 MiB (= 0.4 GiB).
Total memory required = 1144.4 MiB (= 1.1 GiB).
Each kernel will be executed 10 times.
 The *best* time for each kernel (excluding the first iteration)
 will be used to compute the reported bandwidth.
-------------------------------------------------------------
Your clock granularity appears to be less than one microsecond.
Each test below will take on the order of 147337 microseconds.
   (= 147337 clock ticks)
Increase the size of the arrays if this shows that
you are not getting at least 20 clock ticks per test.
-------------------------------------------------------------
WARNING -- The above is only a rough guideline.
For best results, please be sure you know the
precision of your system timer.
-------------------------------------------------------------
Function    Best Rate MB/s  Avg time     Min time     Max time
Copy:          206374.5     0.015509     0.015506     0.015518
Scale:         206533.3     0.015497     0.015494     0.015505
Add:           206679.6     0.015486     0.015483     0.015492
Triad:         206797.4     0.015477     0.015474     0.015485
-------------------------------------------------------------
time is 0.106822 sec
pmax = 3220.909133
-------------------------------------------------------------
grayscale time is 0.558992 sec
grayscale Gflops is 1.298337 
-------------------------------------------------------------
 10240 work-groups of size 256. 1342177280 Integration steps

The calculation ran in   19.259624 seconds
 pi = 3.674992 for 1342177280 steps
-------------------------------------------------------------
knn time is: 4.728248
-------------------------------------------------------------
Time start 140737488.342880 
Time end 206158.430216 
OpenCl Execution time is: 18446603542379.641 milliseconds 
Matrix multiplication of dimensions 2500 x 2500 x 2500
Matrix multiplication runtime: 0.246830 seconds
-------------------------------------------------------------
Time start 140737488.342880 
Time end 206158.430216 
OpenCl Execution time is: 18446603542379.641 milliseconds 
Matrix multiplication of dimensions 2500 x 2500 x 2500
Matrix multiplication runtime: 0.246381 seconds
-------------------------------------------------------------
Time start 140737488.342880 
Time end 206158.430216 
OpenCl Execution time is: 18446603542379.641 milliseconds 
Matrix multiplication of dimensions 2500 x 2500 x 2500
Matrix multiplication runtime: 0.246303 seconds
-------------------------------------------------------------
Average runtime: 0.246505  GFLOPS: 126.772429






TitanXp OCL







 
 Device is  TITAN X (Pascal)  GPU from  NVIDIA Corporation  with a max of 28 compute units 
work group, work item information
 max loc dim  1024  1024  64 
 Max work group size = 1024
This system uses 8 bytes per array element.
-------------------------------------------------------------
Array size = 50000000 (elements), Offset = 0 (elements)
Memory per array = 381.5 MiB (= 0.4 GiB).
Total memory required = 1144.4 MiB (= 1.1 GiB).
Each kernel will be executed 10 times.
 The *best* time for each kernel (excluding the first iteration)
 will be used to compute the reported bandwidth.
-------------------------------------------------------------
Your clock granularity appears to be less than one microsecond.
Each test below will take on the order of 147152 microseconds.
   (= 147152 clock ticks)
Increase the size of the arrays if this shows that
you are not getting at least 20 clock ticks per test.
-------------------------------------------------------------
WARNING -- The above is only a rough guideline.
For best results, please be sure you know the
precision of your system timer.
-------------------------------------------------------------
Function    Best Rate MB/s  Avg time     Min time     Max time
Copy:          206517.4     0.015509     0.015495     0.015517
Scale:         206533.3     0.015498     0.015494     0.015514
Add:           206692.3     0.015485     0.015482     0.015494
Triad:         206813.4     0.015476     0.015473     0.015484
-------------------------------------------------------------
time is 0.105400 sec
pmax = 3264.361680
-------------------------------------------------------------
grayscale time is 0.417738 sec
grayscale Gflops is 1.737357 
-------------------------------------------------------------
 10240 work-groups of size 256. 1342177280 Integration steps

The calculation ran in    0.002895 seconds
 pi = 3.141593 for 1342177280 steps
-------------------------------------------------------------
knn time is: 5.473913
-------------------------------------------------------------
Time start 140737488.342864 
Time end 206158.430216 
OpenCl Execution time is: 18446603542379.641 milliseconds 
Matrix multiplication of dimensions 2500 x 2500 x 2500
Matrix multiplication runtime: 0.024727 seconds
-------------------------------------------------------------
Time start 140737488.342864 
Time end 206158.430216 
OpenCl Execution time is: 18446603542379.641 milliseconds 
Matrix multiplication of dimensions 2500 x 2500 x 2500
Matrix multiplication runtime: 0.000460 seconds
-------------------------------------------------------------
Time start 140737488.342864 
Time end 206158.430216 
OpenCl Execution time is: 18446603542379.641 milliseconds 
Matrix multiplication of dimensions 2500 x 2500 x 2500
Matrix multiplication runtime: 0.000437 seconds
-------------------------------------------------------------
Average runtime: 0.008541  GFLOPS: 3658.708153
 
 Device is  TITAN X (Pascal)  GPU from  NVIDIA Corporation  with a max of 28 compute units 
work group, work item information
 max loc dim  1024  1024  64 
 Max work group size = 1024
This system uses 8 bytes per array element.
-------------------------------------------------------------
Array size = 50000000 (elements), Offset = 0 (elements)
Memory per array = 381.5 MiB (= 0.4 GiB).
Total memory required = 1144.4 MiB (= 1.1 GiB).
Each kernel will be executed 10 times.
 The *best* time for each kernel (excluding the first iteration)
 will be used to compute the reported bandwidth.
-------------------------------------------------------------
Your clock granularity appears to be less than one microsecond.
Each test below will take on the order of 147145 microseconds.
   (= 147145 clock ticks)
Increase the size of the arrays if this shows that
you are not getting at least 20 clock ticks per test.
-------------------------------------------------------------
WARNING -- The above is only a rough guideline.
For best results, please be sure you know the
precision of your system timer.
-------------------------------------------------------------
Function    Best Rate MB/s  Avg time     Min time     Max time
Copy:          206797.4     0.015478     0.015474     0.015485
Scale:         206810.2     0.015476     0.015473     0.015485
Add:           206800.6     0.015479     0.015474     0.015498
Triad:         206787.9     0.015479     0.015475     0.015488
-------------------------------------------------------------
time is 0.105428 sec
pmax = 3263.497969
-------------------------------------------------------------
grayscale time is 0.303949 sec
grayscale Gflops is 2.387768 
-------------------------------------------------------------
 10240 work-groups of size 256. 1342177280 Integration steps

The calculation ran in    0.003342 seconds
 pi = 3.141593 for 1342177280 steps
-------------------------------------------------------------
knn time is: 4.957639
-------------------------------------------------------------
Time start 140737488.342864 
Time end 206158.430216 
OpenCl Execution time is: 18446603542379.641 milliseconds 
Matrix multiplication of dimensions 2500 x 2500 x 2500
Matrix multiplication runtime: 0.027807 seconds
-------------------------------------------------------------
Time start 140737488.342864 
Time end 206158.430216 
OpenCl Execution time is: 18446603542379.641 milliseconds 
Matrix multiplication of dimensions 2500 x 2500 x 2500
Matrix multiplication runtime: 0.000415 seconds
-------------------------------------------------------------
Time start 140737488.342864 
Time end 206158.430216 
OpenCl Execution time is: 18446603542379.641 milliseconds 
Matrix multiplication of dimensions 2500 x 2500 x 2500
Matrix multiplication runtime: 0.000401 seconds
-------------------------------------------------------------
Average runtime: 0.009541  GFLOPS: 3275.353386
 
 Device is  TITAN X (Pascal)  GPU from  NVIDIA Corporation  with a max of 28 compute units 
work group, work item information
 max loc dim  1024  1024  64 
 Max work group size = 1024
This system uses 8 bytes per array element.
-------------------------------------------------------------
Array size = 50000000 (elements), Offset = 0 (elements)
Memory per array = 381.5 MiB (= 0.4 GiB).
Total memory required = 1144.4 MiB (= 1.1 GiB).
Each kernel will be executed 10 times.
 The *best* time for each kernel (excluding the first iteration)
 will be used to compute the reported bandwidth.
-------------------------------------------------------------
Your clock granularity appears to be less than one microsecond.
Each test below will take on the order of 200799 microseconds.
   (= 200799 clock ticks)
Increase the size of the arrays if this shows that
you are not getting at least 20 clock ticks per test.
-------------------------------------------------------------
WARNING -- The above is only a rough guideline.
For best results, please be sure you know the
precision of your system timer.
-------------------------------------------------------------
Function    Best Rate MB/s  Avg time     Min time     Max time
Copy:          206530.1     0.015508     0.015494     0.015521
Scale:         206542.8     0.015498     0.015493     0.015507
Add:           206692.3     0.015488     0.015482     0.015512
Triad:         206784.7     0.015481     0.015475     0.015506
-------------------------------------------------------------
time is 0.105771 sec
pmax = 3252.912323
-------------------------------------------------------------
grayscale time is 0.303741 sec
grayscale Gflops is 2.389404 
-------------------------------------------------------------
 10240 work-groups of size 256. 1342177280 Integration steps

The calculation ran in    0.003383 seconds
 pi = 3.141593 for 1342177280 steps
-------------------------------------------------------------
knn time is: 4.691638
-------------------------------------------------------------
Time start 140737488.342864 
Time end 206158.430216 
OpenCl Execution time is: 18446603542379.641 milliseconds 
Matrix multiplication of dimensions 2500 x 2500 x 2500
Matrix multiplication runtime: 0.025457 seconds
-------------------------------------------------------------
Time start 140737488.342864 
Time end 206158.430216 
OpenCl Execution time is: 18446603542379.641 milliseconds 
Matrix multiplication of dimensions 2500 x 2500 x 2500
Matrix multiplication runtime: 0.000423 seconds
-------------------------------------------------------------
Time start 140737488.342864 
Time end 206158.430216 
OpenCl Execution time is: 18446603542379.641 milliseconds 
Matrix multiplication of dimensions 2500 x 2500 x 2500
Matrix multiplication runtime: 0.000436 seconds
-------------------------------------------------------------
Average runtime: 0.008772  GFLOPS: 3562.449039
 
 Device is  TITAN X (Pascal)  GPU from  NVIDIA Corporation  with a max of 28 compute units 
work group, work item information
 max loc dim  1024  1024  64 
 Max work group size = 1024
This system uses 8 bytes per array element.
-------------------------------------------------------------
Array size = 50000000 (elements), Offset = 0 (elements)
Memory per array = 381.5 MiB (= 0.4 GiB).
Total memory required = 1144.4 MiB (= 1.1 GiB).
Each kernel will be executed 10 times.
 The *best* time for each kernel (excluding the first iteration)
 will be used to compute the reported bandwidth.
-------------------------------------------------------------
Your clock granularity appears to be less than one microsecond.
Each test below will take on the order of 147186 microseconds.
   (= 147186 clock ticks)
Increase the size of the arrays if this shows that
you are not getting at least 20 clock ticks per test.
-------------------------------------------------------------
WARNING -- The above is only a rough guideline.
For best results, please be sure you know the
precision of your system timer.
-------------------------------------------------------------
Function    Best Rate MB/s  Avg time     Min time     Max time
Copy:          206371.3     0.015509     0.015506     0.015524
Scale:         206558.7     0.015496     0.015492     0.015511
Add:           206679.6     0.015489     0.015483     0.015519
Triad:         206797.4     0.015480     0.015474     0.015504
-------------------------------------------------------------
time is 0.106110 sec
pmax = 3242.518978
-------------------------------------------------------------
grayscale time is 0.304035 sec
grayscale Gflops is 2.387094 
-------------------------------------------------------------
 10240 work-groups of size 256. 1342177280 Integration steps

The calculation ran in    0.002921 seconds
 pi = 3.141593 for 1342177280 steps
-------------------------------------------------------------
knn time is: 6.212956
-------------------------------------------------------------
Time start 140737488.342864 
Time end 206158.430216 
OpenCl Execution time is: 18446603542379.641 milliseconds 
Matrix multiplication of dimensions 2500 x 2500 x 2500
Matrix multiplication runtime: 0.035846 seconds
-------------------------------------------------------------
Time start 140737488.342864 
Time end 206158.430216 
OpenCl Execution time is: 18446603542379.641 milliseconds 
Matrix multiplication of dimensions 2500 x 2500 x 2500
Matrix multiplication runtime: 0.000487 seconds
-------------------------------------------------------------
Time start 140737488.342864 
Time end 206158.430216 
OpenCl Execution time is: 18446603542379.641 milliseconds 
Matrix multiplication of dimensions 2500 x 2500 x 2500
Matrix multiplication runtime: 0.000428 seconds
-------------------------------------------------------------
Average runtime: 0.012254  GFLOPS: 2550.253912






RTX 2080Ti MCL






 
 Device is  GeForce RTX 2080 Ti  GPU from  NVIDIA Corporation  with a max of 68 compute units 
work group, work item information
 max loc dim  1024  1024  64 
 Max work group size = 1024
This system uses 8 bytes per array element.
-------------------------------------------------------------
Array size = 50000000 (elements), Offset = 0 (elements)
Memory per array = 381.5 MiB (= 0.4 GiB).
Total memory required = 1144.4 MiB (= 1.1 GiB).
Each kernel will be executed 10 times.
 The *best* time for each kernel (excluding the first iteration)
 will be used to compute the reported bandwidth.
-------------------------------------------------------------
Your clock granularity appears to be less than one microsecond.
Each test below will take on the order of 252734 microseconds.
   (= 252734 clock ticks)
Increase the size of the arrays if this shows that
you are not getting at least 20 clock ticks per test.
-------------------------------------------------------------
WARNING -- The above is only a rough guideline.
For best results, please be sure you know the
precision of your system timer.
-------------------------------------------------------------
Function    Best Rate MB/s  Avg time     Min time     Max time
Copy:          207806.0     0.015406     0.015399     0.015432
Scale:         209097.7     0.015316     0.015304     0.015353
Add:           208292.9     0.015376     0.015363     0.015419
Triad:         209205.3     0.015303     0.015296     0.015315
-------------------------------------------------------------
time is 0.213174 sec
pmax = 3919.725622
-------------------------------------------------------------
grayscale time is 0.569978 sec
grayscale Gflops is 1.273312 
-------------------------------------------------------------
 10240 work-groups of size 256. 1342177280 Integration steps

The calculation ran in   25.124356 seconds
 pi = 3.675714 for 1342177280 steps
-------------------------------------------------------------
knn time is: 4.952519
-------------------------------------------------------------
Time start 140737488.342880 
Time end 206158.430216 
OpenCl Execution time is: 18446603542379.641 milliseconds 
Matrix multiplication of dimensions 2500 x 2500 x 2500
Matrix multiplication runtime: 0.159119 seconds
-------------------------------------------------------------
Time start 140737488.342880 
Time end 206158.430216 
OpenCl Execution time is: 18446603542379.641 milliseconds 
Matrix multiplication of dimensions 2500 x 2500 x 2500
Matrix multiplication runtime: 0.151292 seconds
-------------------------------------------------------------
Time start 140737488.342880 
Time end 206158.430216 
OpenCl Execution time is: 18446603542379.641 milliseconds 
Matrix multiplication of dimensions 2500 x 2500 x 2500
Matrix multiplication runtime: 0.161093 seconds
-------------------------------------------------------------
Average runtime: 0.157168  GFLOPS: 198.831835
 
 Device is  GeForce RTX 2080 Ti  GPU from  NVIDIA Corporation  with a max of 68 compute units 
work group, work item information
 max loc dim  1024  1024  64 
 Max work group size = 1024
This system uses 8 bytes per array element.
-------------------------------------------------------------
Array size = 50000000 (elements), Offset = 0 (elements)
Memory per array = 381.5 MiB (= 0.4 GiB).
Total memory required = 1144.4 MiB (= 1.1 GiB).
Each kernel will be executed 10 times.
 The *best* time for each kernel (excluding the first iteration)
 will be used to compute the reported bandwidth.
-------------------------------------------------------------
Your clock granularity appears to be less than one microsecond.
Each test below will take on the order of 257222 microseconds.
   (= 257222 clock ticks)
Increase the size of the arrays if this shows that
you are not getting at least 20 clock ticks per test.
-------------------------------------------------------------
WARNING -- The above is only a rough guideline.
For best results, please be sure you know the
precision of your system timer.
-------------------------------------------------------------
Function    Best Rate MB/s  Avg time     Min time     Max time
Copy:          206476.1     0.015541     0.015498     0.015561
Scale:         207915.4     0.015410     0.015391     0.015477
Add:           209192.2     0.015343     0.015297     0.015363
Triad:         208428.8     0.015371     0.015353     0.015423
-------------------------------------------------------------
time is 0.213504 sec
pmax = 3913.672042
-------------------------------------------------------------
grayscale time is 0.565776 sec
grayscale Gflops is 1.282769 
-------------------------------------------------------------
 10240 work-groups of size 256. 1342177280 Integration steps

The calculation ran in   25.126744 seconds
 pi = 3.675511 for 1342177280 steps
-------------------------------------------------------------
knn time is: 5.080667
-------------------------------------------------------------
Time start 140737488.342880 
Time end 206158.430216 
OpenCl Execution time is: 18446603542379.641 milliseconds 
Matrix multiplication of dimensions 2500 x 2500 x 2500
Matrix multiplication runtime: 0.158616 seconds
-------------------------------------------------------------
Time start 140737488.342880 
Time end 206158.430216 
OpenCl Execution time is: 18446603542379.641 milliseconds 
Matrix multiplication of dimensions 2500 x 2500 x 2500
Matrix multiplication runtime: 0.152544 seconds
-------------------------------------------------------------
Time start 140737488.342880 
Time end 206158.430216 
OpenCl Execution time is: 18446603542379.641 milliseconds 
Matrix multiplication of dimensions 2500 x 2500 x 2500
Matrix multiplication runtime: 0.161954 seconds
-------------------------------------------------------------
Average runtime: 0.157705  GFLOPS: 198.155196
 
 Device is  GeForce RTX 2080 Ti  GPU from  NVIDIA Corporation  with a max of 68 compute units 
work group, work item information
 max loc dim  1024  1024  64 
 Max work group size = 1024
This system uses 8 bytes per array element.
-------------------------------------------------------------
Array size = 50000000 (elements), Offset = 0 (elements)
Memory per array = 381.5 MiB (= 0.4 GiB).
Total memory required = 1144.4 MiB (= 1.1 GiB).
Each kernel will be executed 10 times.
 The *best* time for each kernel (excluding the first iteration)
 will be used to compute the reported bandwidth.
-------------------------------------------------------------
Your clock granularity appears to be less than one microsecond.
Each test below will take on the order of 254848 microseconds.
   (= 254848 clock ticks)
Increase the size of the arrays if this shows that
you are not getting at least 20 clock ticks per test.
-------------------------------------------------------------
WARNING -- The above is only a rough guideline.
For best results, please be sure you know the
precision of your system timer.
-------------------------------------------------------------
Function    Best Rate MB/s  Avg time     Min time     Max time
Copy:          205934.4     0.015553     0.015539     0.015576
Scale:         208441.8     0.015360     0.015352     0.015387
Add:           208918.7     0.015353     0.015317     0.015384
Triad:         209218.3     0.015305     0.015295     0.015331
-------------------------------------------------------------
time is 0.214943 sec
pmax = 3887.464756
-------------------------------------------------------------
grayscale time is 0.569070 sec
grayscale Gflops is 1.275344 
-------------------------------------------------------------
 10240 work-groups of size 256. 1342177280 Integration steps

The calculation ran in   25.276556 seconds
 pi = 3.675445 for 1342177280 steps
-------------------------------------------------------------
knn time is: 4.792667
-------------------------------------------------------------
Time start 140737488.342880 
Time end 206158.430216 
OpenCl Execution time is: 18446603542379.641 milliseconds 
Matrix multiplication of dimensions 2500 x 2500 x 2500
Matrix multiplication runtime: 0.159393 seconds
-------------------------------------------------------------
Time start 140737488.342880 
Time end 206158.430216 
OpenCl Execution time is: 18446603542379.641 milliseconds 
Matrix multiplication of dimensions 2500 x 2500 x 2500
Matrix multiplication runtime: 0.151915 seconds
-------------------------------------------------------------
Time start 140737488.342880 
Time end 206158.430216 
OpenCl Execution time is: 18446603542379.641 milliseconds 
Matrix multiplication of dimensions 2500 x 2500 x 2500
Matrix multiplication runtime: 0.160104 seconds
-------------------------------------------------------------
Average runtime: 0.157137  GFLOPS: 198.870651
 
 Device is  GeForce RTX 2080 Ti  GPU from  NVIDIA Corporation  with a max of 68 compute units 
work group, work item information
 max loc dim  1024  1024  64 
 Max work group size = 1024
This system uses 8 bytes per array element.
-------------------------------------------------------------
Array size = 50000000 (elements), Offset = 0 (elements)
Memory per array = 381.5 MiB (= 0.4 GiB).
Total memory required = 1144.4 MiB (= 1.1 GiB).
Each kernel will be executed 10 times.
 The *best* time for each kernel (excluding the first iteration)
 will be used to compute the reported bandwidth.
-------------------------------------------------------------
Your clock granularity appears to be less than one microsecond.
Each test below will take on the order of 257916 microseconds.
   (= 257916 clock ticks)
Increase the size of the arrays if this shows that
you are not getting at least 20 clock ticks per test.
-------------------------------------------------------------
WARNING -- The above is only a rough guideline.
For best results, please be sure you know the
precision of your system timer.
-------------------------------------------------------------
Function    Best Rate MB/s  Avg time     Min time     Max time
Copy:          205763.9     0.015562     0.015552     0.015609
Scale:         208863.4     0.015329     0.015321     0.015344
Add:           208076.6     0.015389     0.015379     0.015418
Triad:         209136.8     0.015333     0.015301     0.015480
-------------------------------------------------------------
time is 0.214739 sec
pmax = 3891.163691
-------------------------------------------------------------
grayscale time is 0.568870 sec
grayscale Gflops is 1.275792 
-------------------------------------------------------------
 10240 work-groups of size 256. 1342177280 Integration steps

The calculation ran in   25.243035 seconds
 pi = 3.675406 for 1342177280 steps
-------------------------------------------------------------
knn time is: 4.797873
-------------------------------------------------------------
Time start 140737488.342880 
Time end 206158.430216 
OpenCl Execution time is: 18446603542379.641 milliseconds 
Matrix multiplication of dimensions 2500 x 2500 x 2500
Matrix multiplication runtime: 0.159055 seconds
-------------------------------------------------------------
Time start 140737488.342880 
Time end 206158.430216 
OpenCl Execution time is: 18446603542379.641 milliseconds 
Matrix multiplication of dimensions 2500 x 2500 x 2500
Matrix multiplication runtime: 0.152226 seconds
-------------------------------------------------------------
Time start 140737488.342880 
Time end 206158.430216 
OpenCl Execution time is: 18446603542379.641 milliseconds 
Matrix multiplication of dimensions 2500 x 2500 x 2500
Matrix multiplication runtime: 0.161634 seconds
-------------------------------------------------------------
Average runtime: 0.157638  GFLOPS: 198.238612






RTX 2080Ti OCL







 
 Device is  GeForce RTX 2080 Ti  GPU from  NVIDIA Corporation  with a max of 68 compute units 
work group, work item information
 max loc dim  1024  1024  64 
 Max work group size = 1024
This system uses 8 bytes per array element.
-------------------------------------------------------------
Array size = 50000000 (elements), Offset = 0 (elements)
Memory per array = 381.5 MiB (= 0.4 GiB).
Total memory required = 1144.4 MiB (= 1.1 GiB).
Each kernel will be executed 10 times.
 The *best* time for each kernel (excluding the first iteration)
 will be used to compute the reported bandwidth.
-------------------------------------------------------------
Your clock granularity appears to be less than one microsecond.
Each test below will take on the order of 255532 microseconds.
   (= 255532 clock ticks)
Increase the size of the arrays if this shows that
you are not getting at least 20 clock ticks per test.
-------------------------------------------------------------
WARNING -- The above is only a rough guideline.
For best results, please be sure you know the
precision of your system timer.
-------------------------------------------------------------
Function    Best Rate MB/s  Avg time     Min time     Max time
Copy:          206438.0     0.015549     0.015501     0.015582
Scale:         208276.8     0.015374     0.015364     0.015380
Add:           207767.4     0.015406     0.015402     0.015413
Triad:         208454.7     0.015366     0.015351     0.015440
-------------------------------------------------------------
time is 0.212728 sec
pmax = 3927.945111
-------------------------------------------------------------
grayscale time is 0.568974 sec
grayscale Gflops is 1.275559 
-------------------------------------------------------------
 10240 work-groups of size 256. 1342177280 Integration steps

The calculation ran in    0.002496 seconds
 pi = 3.141593 for 1342177280 steps
-------------------------------------------------------------
knn time is: 4.801514
-------------------------------------------------------------
Time start 140737488.342864 
Time end 206158.430216 
OpenCl Execution time is: 18446603542379.641 milliseconds 
Matrix multiplication of dimensions 2500 x 2500 x 2500
Matrix multiplication runtime: 0.027039 seconds
-------------------------------------------------------------
Time start 140737488.342864 
Time end 206158.430216 
OpenCl Execution time is: 18446603542379.641 milliseconds 
Matrix multiplication of dimensions 2500 x 2500 x 2500
Matrix multiplication runtime: 0.000506 seconds
-------------------------------------------------------------
Time start 140737488.342864 
Time end 206158.430216 
OpenCl Execution time is: 18446603542379.641 milliseconds 
Matrix multiplication of dimensions 2500 x 2500 x 2500
Matrix multiplication runtime: 0.000510 seconds
-------------------------------------------------------------
Average runtime: 0.009352  GFLOPS: 3341.627575
 
 Device is  GeForce RTX 2080 Ti  GPU from  NVIDIA Corporation  with a max of 68 compute units 
work group, work item information
 max loc dim  1024  1024  64 
 Max work group size = 1024
This system uses 8 bytes per array element.
-------------------------------------------------------------
Array size = 50000000 (elements), Offset = 0 (elements)
Memory per array = 381.5 MiB (= 0.4 GiB).
Total memory required = 1144.4 MiB (= 1.1 GiB).
Each kernel will be executed 10 times.
 The *best* time for each kernel (excluding the first iteration)
 will be used to compute the reported bandwidth.
-------------------------------------------------------------
Your clock granularity appears to be less than one microsecond.
Each test below will take on the order of 255844 microseconds.
   (= 255844 clock ticks)
Increase the size of the arrays if this shows that
you are not getting at least 20 clock ticks per test.
-------------------------------------------------------------
WARNING -- The above is only a rough guideline.
For best results, please be sure you know the
precision of your system timer.
-------------------------------------------------------------
Function    Best Rate MB/s  Avg time     Min time     Max time
Copy:          205719.7     0.015582     0.015555     0.015732
Scale:         207052.6     0.015463     0.015455     0.015478
Add:           208470.9     0.015353     0.015350     0.015359
Triad:         208373.8     0.015363     0.015357     0.015377
-------------------------------------------------------------
time is 0.213464 sec
pmax = 3914.402031
-------------------------------------------------------------
grayscale time is 0.569541 sec
grayscale Gflops is 1.274289 
-------------------------------------------------------------
 10240 work-groups of size 256. 1342177280 Integration steps

The calculation ran in    0.002548 seconds
 pi = 3.141593 for 1342177280 steps
-------------------------------------------------------------
knn time is: 4.799545
-------------------------------------------------------------
Time start 140737488.342864 
Time end 206158.430216 
OpenCl Execution time is: 18446603542379.641 milliseconds 
Matrix multiplication of dimensions 2500 x 2500 x 2500
Matrix multiplication runtime: 0.027264 seconds
-------------------------------------------------------------
Time start 140737488.342864 
Time end 206158.430216 
OpenCl Execution time is: 18446603542379.641 milliseconds 
Matrix multiplication of dimensions 2500 x 2500 x 2500
Matrix multiplication runtime: 0.000520 seconds
-------------------------------------------------------------
Time start 140737488.342864 
Time end 206158.430216 
OpenCl Execution time is: 18446603542379.641 milliseconds 
Matrix multiplication of dimensions 2500 x 2500 x 2500
Matrix multiplication runtime: 0.000519 seconds
-------------------------------------------------------------
Average runtime: 0.009434  GFLOPS: 3312.352584
 
 Device is  GeForce RTX 2080 Ti  GPU from  NVIDIA Corporation  with a max of 68 compute units 
work group, work item information
 max loc dim  1024  1024  64 
 Max work group size = 1024
This system uses 8 bytes per array element.
-------------------------------------------------------------
Array size = 50000000 (elements), Offset = 0 (elements)
Memory per array = 381.5 MiB (= 0.4 GiB).
Total memory required = 1144.4 MiB (= 1.1 GiB).
Each kernel will be executed 10 times.
 The *best* time for each kernel (excluding the first iteration)
 will be used to compute the reported bandwidth.
-------------------------------------------------------------
Your clock granularity appears to be less than one microsecond.
Each test below will take on the order of 257680 microseconds.
   (= 257680 clock ticks)
Increase the size of the arrays if this shows that
you are not getting at least 20 clock ticks per test.
-------------------------------------------------------------
WARNING -- The above is only a rough guideline.
For best results, please be sure you know the
precision of your system timer.
-------------------------------------------------------------
Function    Best Rate MB/s  Avg time     Min time     Max time
Copy:          206304.7     0.015566     0.015511     0.015585
Scale:         208008.9     0.015386     0.015384     0.015391
Add:           208944.7     0.015322     0.015315     0.015329
Triad:         208428.8     0.015362     0.015353     0.015386
-------------------------------------------------------------
time is 0.214314 sec
pmax = 3898.877641
-------------------------------------------------------------
grayscale time is 0.569489 sec
grayscale Gflops is 1.274406 
-------------------------------------------------------------
 10240 work-groups of size 256. 1342177280 Integration steps

The calculation ran in    0.002486 seconds
 pi = 3.141593 for 1342177280 steps
-------------------------------------------------------------
knn time is: 4.794885
-------------------------------------------------------------
Time start 140737488.342864 
Time end 206158.430216 
OpenCl Execution time is: 18446603542379.641 milliseconds 
Matrix multiplication of dimensions 2500 x 2500 x 2500
Matrix multiplication runtime: 0.029170 seconds
-------------------------------------------------------------
Time start 140737488.342864 
Time end 206158.430216 
OpenCl Execution time is: 18446603542379.641 milliseconds 
Matrix multiplication of dimensions 2500 x 2500 x 2500
Matrix multiplication runtime: 0.000516 seconds
-------------------------------------------------------------
Time start 140737488.342864 
Time end 206158.430216 
OpenCl Execution time is: 18446603542379.641 milliseconds 
Matrix multiplication of dimensions 2500 x 2500 x 2500
Matrix multiplication runtime: 0.000509 seconds
-------------------------------------------------------------
Average runtime: 0.010065  GFLOPS: 3104.818906
 
 Device is  GeForce RTX 2080 Ti  GPU from  NVIDIA Corporation  with a max of 68 compute units 
work group, work item information
 max loc dim  1024  1024  64 
 Max work group size = 1024
This system uses 8 bytes per array element.
-------------------------------------------------------------
Array size = 50000000 (elements), Offset = 0 (elements)
Memory per array = 381.5 MiB (= 0.4 GiB).
Total memory required = 1144.4 MiB (= 1.1 GiB).
Each kernel will be executed 10 times.
 The *best* time for each kernel (excluding the first iteration)
 will be used to compute the reported bandwidth.
-------------------------------------------------------------
Your clock granularity appears to be less than one microsecond.
Each test below will take on the order of 259165 microseconds.
   (= 259165 clock ticks)
Increase the size of the arrays if this shows that
you are not getting at least 20 clock ticks per test.
-------------------------------------------------------------
WARNING -- The above is only a rough guideline.
For best results, please be sure you know the
precision of your system timer.
-------------------------------------------------------------
Function    Best Rate MB/s  Avg time     Min time     Max time
Copy:          205694.5     0.015568     0.015557     0.015621
Scale:         208821.2     0.015331     0.015324     0.015344
Add:           208131.4     0.015383     0.015375     0.015394
Triad:         209039.1     0.015620     0.015308     0.017783
-------------------------------------------------------------
time is 0.214317 sec
pmax = 3898.821255
-------------------------------------------------------------
grayscale time is 0.571056 sec
grayscale Gflops is 1.270909 
-------------------------------------------------------------
 10240 work-groups of size 256. 1342177280 Integration steps

The calculation ran in    0.002511 seconds
 pi = 3.141593 for 1342177280 steps
-------------------------------------------------------------
knn time is: 4.789042
-------------------------------------------------------------
Time start 140737488.342864 
Time end 206158.430216 
OpenCl Execution time is: 18446603542379.641 milliseconds 
Matrix multiplication of dimensions 2500 x 2500 x 2500
Matrix multiplication runtime: 0.027110 seconds
-------------------------------------------------------------
Time start 140737488.342864 
Time end 206158.430216 
OpenCl Execution time is: 18446603542379.641 milliseconds 
Matrix multiplication of dimensions 2500 x 2500 x 2500
Matrix multiplication runtime: 0.000541 seconds
-------------------------------------------------------------
Time start 140737488.342864 
Time end 206158.430216 
OpenCl Execution time is: 18446603542379.641 milliseconds 
Matrix multiplication of dimensions 2500 x 2500 x 2500
Matrix multiplication runtime: 0.000524 seconds
-------------------------------------------------------------
Average runtime: 0.009392  GFLOPS: 3327.432430 






K20 MCL






 
 Device is  Tesla K20m  GPU from  NVIDIA Corporation  with a max of 13 compute units 
work group, work item information
 max loc dim  1024  1024  64 
 Max work group size = 1024
This system uses 8 bytes per array element.
-------------------------------------------------------------
Array size = 50000000 (elements), Offset = 0 (elements)
Memory per array = 381.5 MiB (= 0.4 GiB).
Total memory required = 1144.4 MiB (= 1.1 GiB).
Each kernel will be executed 10 times.
 The *best* time for each kernel (excluding the first iteration)
 will be used to compute the reported bandwidth.
-------------------------------------------------------------
Your clock granularity appears to be less than one microsecond.
Each test below will take on the order of 162357 microseconds.
   (= 162357 clock ticks)
Increase the size of the arrays if this shows that
you are not getting at least 20 clock ticks per test.
-------------------------------------------------------------
WARNING -- The above is only a rough guideline.
For best results, please be sure you know the
precision of your system timer.
-------------------------------------------------------------
Function    Best Rate MB/s  Avg time     Min time     Max time
Copy:          105757.4     0.030265     0.030258     0.030291
Scale:         105760.7     0.030260     0.030257     0.030267
Add:           105760.7     0.030294     0.030257     0.030351
Triad:         105687.4     0.030306     0.030278     0.030413
-------------------------------------------------------------
time is 0.228396 sec
pmax = 699.416990
-------------------------------------------------------------
grayscale time is 0.367610 sec
grayscale Gflops is 1.974265 
-------------------------------------------------------------
 10240 work-groups of size 256. 1342177280 Integration steps

The calculation ran in   41.796254 seconds
 pi = 3.671542 for 1342177280 steps
-------------------------------------------------------------
knn time is: 5.373512
-------------------------------------------------------------
Time start 140737488.342880 
Time end 206158.430216 
OpenCl Execution time is: 18446603542379.641 milliseconds 
Matrix multiplication of dimensions 2500 x 2500 x 2500
Matrix multiplication runtime: 0.524804 seconds
-------------------------------------------------------------
Time start 140737488.342880 
Time end 206158.430216 
OpenCl Execution time is: 18446603542379.641 milliseconds 
Matrix multiplication of dimensions 2500 x 2500 x 2500
Matrix multiplication runtime: 0.527886 seconds
-------------------------------------------------------------
Time start 140737488.342880 
Time end 206158.430216 
OpenCl Execution time is: 18446603542379.641 milliseconds 
Matrix multiplication of dimensions 2500 x 2500 x 2500
Matrix multiplication runtime: 0.526995 seconds
-------------------------------------------------------------
Average runtime: 0.526562  GFLOPS: 59.347276
 
 Device is  Tesla K20m  GPU from  NVIDIA Corporation  with a max of 13 compute units 
work group, work item information
 max loc dim  1024  1024  64 
 Max work group size = 1024
This system uses 8 bytes per array element.
-------------------------------------------------------------
Array size = 50000000 (elements), Offset = 0 (elements)
Memory per array = 381.5 MiB (= 0.4 GiB).
Total memory required = 1144.4 MiB (= 1.1 GiB).
Each kernel will be executed 10 times.
 The *best* time for each kernel (excluding the first iteration)
 will be used to compute the reported bandwidth.
-------------------------------------------------------------
Your clock granularity appears to be less than one microsecond.
Each test below will take on the order of 161511 microseconds.
   (= 161511 clock ticks)
Increase the size of the arrays if this shows that
you are not getting at least 20 clock ticks per test.
-------------------------------------------------------------
WARNING -- The above is only a rough guideline.
For best results, please be sure you know the
precision of your system timer.
-------------------------------------------------------------
Function    Best Rate MB/s  Avg time     Min time     Max time
Copy:          105757.4     0.030266     0.030258     0.030305
Scale:         105747.4     0.030266     0.030261     0.030290
Add:           105753.2     0.030263     0.030259     0.030280
Triad:         105701.6     0.030278     0.030274     0.030287
-------------------------------------------------------------
time is 0.228419 sec
pmax = 699.346176
-------------------------------------------------------------
grayscale time is 0.367624 sec
grayscale Gflops is 1.974192 
-------------------------------------------------------------
 10240 work-groups of size 256. 1342177280 Integration steps

The calculation ran in   42.619675 seconds
 pi = 3.671213 for 1342177280 steps
-------------------------------------------------------------
knn time is: 5.435133
-------------------------------------------------------------
Time start 140737488.342880 
Time end 206158.430216 
OpenCl Execution time is: 18446603542379.641 milliseconds 
Matrix multiplication of dimensions 2500 x 2500 x 2500
Matrix multiplication runtime: 0.524701 seconds
-------------------------------------------------------------
Time start 140737488.342880 
Time end 206158.430216 
OpenCl Execution time is: 18446603542379.641 milliseconds 
Matrix multiplication of dimensions 2500 x 2500 x 2500
Matrix multiplication runtime: 0.527251 seconds
-------------------------------------------------------------
Time start 140737488.342880 
Time end 206158.430216 
OpenCl Execution time is: 18446603542379.641 milliseconds 
Matrix multiplication of dimensions 2500 x 2500 x 2500
Matrix multiplication runtime: 0.526885 seconds
-------------------------------------------------------------
Average runtime: 0.526279  GFLOPS: 59.379154
 
 Device is  Tesla K20m  GPU from  NVIDIA Corporation  with a max of 13 compute units 
work group, work item information
 max loc dim  1024  1024  64 
 Max work group size = 1024
This system uses 8 bytes per array element.
-------------------------------------------------------------
Array size = 50000000 (elements), Offset = 0 (elements)
Memory per array = 381.5 MiB (= 0.4 GiB).
Total memory required = 1144.4 MiB (= 1.1 GiB).
Each kernel will be executed 10 times.
 The *best* time for each kernel (excluding the first iteration)
 will be used to compute the reported bandwidth.
-------------------------------------------------------------
Your clock granularity appears to be less than one microsecond.
Each test below will take on the order of 160998 microseconds.
   (= 160998 clock ticks)
Increase the size of the arrays if this shows that
you are not getting at least 20 clock ticks per test.
-------------------------------------------------------------
WARNING -- The above is only a rough guideline.
For best results, please be sure you know the
precision of your system timer.
-------------------------------------------------------------
Function    Best Rate MB/s  Avg time     Min time     Max time
Copy:          105739.9     0.030279     0.030263     0.030306
Scale:         105756.5     0.030265     0.030258     0.030299
Add:           105743.2     0.030278     0.030262     0.030297
Triad:         105698.2     0.030283     0.030275     0.030300
-------------------------------------------------------------
time is 0.228425 sec
pmax = 699.327928
-------------------------------------------------------------
grayscale time is 0.369900 sec
grayscale Gflops is 1.962044 
-------------------------------------------------------------
 10240 work-groups of size 256. 1342177280 Integration steps

The calculation ran in   41.375753 seconds
 pi = 3.672118 for 1342177280 steps
-------------------------------------------------------------
knn time is: 5.190478
-------------------------------------------------------------
Time start 140737488.342880 
Time end 206158.430216 
OpenCl Execution time is: 18446603542379.641 milliseconds 
Matrix multiplication of dimensions 2500 x 2500 x 2500
Matrix multiplication runtime: 0.524934 seconds
-------------------------------------------------------------
Time start 140737488.342880 
Time end 206158.430216 
OpenCl Execution time is: 18446603542379.641 milliseconds 
Matrix multiplication of dimensions 2500 x 2500 x 2500
Matrix multiplication runtime: 0.527203 seconds
-------------------------------------------------------------
Time start 140737488.342880 
Time end 206158.430216 
OpenCl Execution time is: 18446603542379.641 milliseconds 
Matrix multiplication of dimensions 2500 x 2500 x 2500
Matrix multiplication runtime: 0.527049 seconds
-------------------------------------------------------------
Average runtime: 0.526395  GFLOPS: 59.366020
 
 Device is  Tesla K20m  GPU from  NVIDIA Corporation  with a max of 13 compute units 
work group, work item information
 max loc dim  1024  1024  64 
 Max work group size = 1024
This system uses 8 bytes per array element.
-------------------------------------------------------------
Array size = 50000000 (elements), Offset = 0 (elements)
Memory per array = 381.5 MiB (= 0.4 GiB).
Total memory required = 1144.4 MiB (= 1.1 GiB).
Each kernel will be executed 10 times.
 The *best* time for each kernel (excluding the first iteration)
 will be used to compute the reported bandwidth.
-------------------------------------------------------------
Your clock granularity appears to be less than one microsecond.
Each test below will take on the order of 161859 microseconds.
   (= 161859 clock ticks)
Increase the size of the arrays if this shows that
you are not getting at least 20 clock ticks per test.
-------------------------------------------------------------
WARNING -- The above is only a rough guideline.
For best results, please be sure you know the
precision of your system timer.
-------------------------------------------------------------
Function    Best Rate MB/s  Avg time     Min time     Max time
Copy:          105757.4     0.030263     0.030258     0.030272
Scale:         105760.7     0.030265     0.030257     0.030300
Add:           105739.9     0.030267     0.030263     0.030277
Triad:         105687.4     0.030291     0.030278     0.030352
-------------------------------------------------------------
time is 0.228426 sec
pmax = 699.324278
-------------------------------------------------------------
grayscale time is 0.370003 sec
grayscale Gflops is 1.961498 
-------------------------------------------------------------
 10240 work-groups of size 256. 1342177280 Integration steps

The calculation ran in   42.751753 seconds
 pi = 3.671216 for 1342177280 steps
-------------------------------------------------------------
knn time is: 5.208165
-------------------------------------------------------------
Time start 140737488.342880 
Time end 206158.430216 
OpenCl Execution time is: 18446603542379.641 milliseconds 
Matrix multiplication of dimensions 2500 x 2500 x 2500
Matrix multiplication runtime: 0.524842 seconds
-------------------------------------------------------------
Time start 140737488.342880 
Time end 206158.430216 
OpenCl Execution time is: 18446603542379.641 milliseconds 
Matrix multiplication of dimensions 2500 x 2500 x 2500
Matrix multiplication runtime: 0.527523 seconds
-------------------------------------------------------------
Time start 140737488.342880 
Time end 206158.430216 
OpenCl Execution time is: 18446603542379.641 milliseconds 
Matrix multiplication of dimensions 2500 x 2500 x 2500
Matrix multiplication runtime: 0.526877 seconds
-------------------------------------------------------------
Average runtime: 0.526414  GFLOPS: 59.363923





K20 OCL






 
 Device is  Tesla K20m  GPU from  NVIDIA Corporation  with a max of 13 compute units 
work group, work item information
 max loc dim  1024  1024  64 
 Max work group size = 1024
This system uses 8 bytes per array element.
-------------------------------------------------------------
Array size = 50000000 (elements), Offset = 0 (elements)
Memory per array = 381.5 MiB (= 0.4 GiB).
Total memory required = 1144.4 MiB (= 1.1 GiB).
Each kernel will be executed 10 times.
 The *best* time for each kernel (excluding the first iteration)
 will be used to compute the reported bandwidth.
-------------------------------------------------------------
Your clock granularity appears to be less than one microsecond.
Each test below will take on the order of 162576 microseconds.
   (= 162576 clock ticks)
Increase the size of the arrays if this shows that
you are not getting at least 20 clock ticks per test.
-------------------------------------------------------------
WARNING -- The above is only a rough guideline.
For best results, please be sure you know the
precision of your system timer.
-------------------------------------------------------------
Function    Best Rate MB/s  Avg time     Min time     Max time
Copy:          105735.7     0.030281     0.030264     0.030374
Scale:         105753.2     0.030270     0.030259     0.030304
Add:           105754.0     0.030269     0.030259     0.030311
Triad:         105659.1     0.030300     0.030286     0.030326
-------------------------------------------------------------
time is 0.228423 sec
pmax = 699.334497
-------------------------------------------------------------
grayscale time is 0.371646 sec
grayscale Gflops is 1.952826 
-------------------------------------------------------------
 10240 work-groups of size 256. 1342177280 Integration steps

The calculation ran in    0.010925 seconds
 pi = 3.141593 for 1342177280 steps
-------------------------------------------------------------
knn time is: 5.356913
-------------------------------------------------------------
Time start 140737488.342864 
Time end 206158.430216 
OpenCl Execution time is: 18446603542379.641 milliseconds 
Matrix multiplication of dimensions 2500 x 2500 x 2500
Matrix multiplication runtime: 0.106020 seconds
-------------------------------------------------------------
Time start 140737488.342864 
Time end 206158.430216 
OpenCl Execution time is: 18446603542379.641 milliseconds 
Matrix multiplication of dimensions 2500 x 2500 x 2500
Matrix multiplication runtime: 0.000388 seconds
-------------------------------------------------------------
Time start 140737488.342864 
Time end 206158.430216 
OpenCl Execution time is: 18446603542379.641 milliseconds 
Matrix multiplication of dimensions 2500 x 2500 x 2500
Matrix multiplication runtime: 0.000386 seconds
-------------------------------------------------------------
Average runtime: 0.035598  GFLOPS: 877.859289
 
 Device is  Tesla K20m  GPU from  NVIDIA Corporation  with a max of 13 compute units 
work group, work item information
 max loc dim  1024  1024  64 
 Max work group size = 1024
This system uses 8 bytes per array element.
-------------------------------------------------------------
Array size = 50000000 (elements), Offset = 0 (elements)
Memory per array = 381.5 MiB (= 0.4 GiB).
Total memory required = 1144.4 MiB (= 1.1 GiB).
Each kernel will be executed 10 times.
 The *best* time for each kernel (excluding the first iteration)
 will be used to compute the reported bandwidth.
-------------------------------------------------------------
Your clock granularity appears to be less than one microsecond.
Each test below will take on the order of 162349 microseconds.
   (= 162349 clock ticks)
Increase the size of the arrays if this shows that
you are not getting at least 20 clock ticks per test.
-------------------------------------------------------------
WARNING -- The above is only a rough guideline.
For best results, please be sure you know the
precision of your system timer.
-------------------------------------------------------------
Function    Best Rate MB/s  Avg time     Min time     Max time
Copy:          105760.7     0.030292     0.030257     0.030442
Scale:         105760.7     0.030289     0.030257     0.030328
Add:           105756.5     0.030294     0.030258     0.030325
Triad:         105676.6     0.030298     0.030281     0.030324
-------------------------------------------------------------
time is 0.228386 sec
pmax = 699.447656
-------------------------------------------------------------
grayscale time is 0.372475 sec
grayscale Gflops is 1.948480 
-------------------------------------------------------------
 10240 work-groups of size 256. 1342177280 Integration steps

The calculation ran in    0.010911 seconds
 pi = 3.141593 for 1342177280 steps
-------------------------------------------------------------
knn time is: 5.180604
-------------------------------------------------------------
Time start 140737488.342864 
Time end 206158.430216 
OpenCl Execution time is: 18446603542379.641 milliseconds 
Matrix multiplication of dimensions 2500 x 2500 x 2500
Matrix multiplication runtime: 0.278062 seconds
-------------------------------------------------------------
Time start 140737488.342864 
Time end 206158.430216 
OpenCl Execution time is: 18446603542379.641 milliseconds 
Matrix multiplication of dimensions 2500 x 2500 x 2500
Matrix multiplication runtime: 0.000406 seconds
-------------------------------------------------------------
Time start 140737488.342864 
Time end 206158.430216 
OpenCl Execution time is: 18446603542379.641 milliseconds 
Matrix multiplication of dimensions 2500 x 2500 x 2500
Matrix multiplication runtime: 0.000378 seconds
-------------------------------------------------------------
Average runtime: 0.092949  GFLOPS: 336.206764
 
 Device is  Tesla K20m  GPU from  NVIDIA Corporation  with a max of 13 compute units 
work group, work item information
 max loc dim  1024  1024  64 
 Max work group size = 1024
This system uses 8 bytes per array element.
-------------------------------------------------------------
Array size = 50000000 (elements), Offset = 0 (elements)
Memory per array = 381.5 MiB (= 0.4 GiB).
Total memory required = 1144.4 MiB (= 1.1 GiB).
Each kernel will be executed 10 times.
 The *best* time for each kernel (excluding the first iteration)
 will be used to compute the reported bandwidth.
-------------------------------------------------------------
Your clock granularity appears to be less than one microsecond.
Each test below will take on the order of 162016 microseconds.
   (= 162016 clock ticks)
Increase the size of the arrays if this shows that
you are not getting at least 20 clock ticks per test.
-------------------------------------------------------------
WARNING -- The above is only a rough guideline.
For best results, please be sure you know the
precision of your system timer.
-------------------------------------------------------------
Function    Best Rate MB/s  Avg time     Min time     Max time
Copy:          105757.4     0.030261     0.030258     0.030273
Scale:         105757.4     0.030280     0.030258     0.030350
Add:           105757.4     0.030267     0.030258     0.030310
Triad:         105641.7     0.030318     0.030291     0.030339
-------------------------------------------------------------
time is 0.228431 sec
pmax = 699.309680
-------------------------------------------------------------
grayscale time is 0.371118 sec
grayscale Gflops is 1.955604 
-------------------------------------------------------------
 10240 work-groups of size 256. 1342177280 Integration steps

The calculation ran in    0.010951 seconds
 pi = 3.141593 for 1342177280 steps
-------------------------------------------------------------
knn time is: 5.360268
-------------------------------------------------------------
Time start 140737488.342864 
Time end 206158.430216 
OpenCl Execution time is: 18446603542379.641 milliseconds 
Matrix multiplication of dimensions 2500 x 2500 x 2500
Matrix multiplication runtime: 0.098331 seconds
-------------------------------------------------------------
Time start 140737488.342864 
Time end 206158.430216 
OpenCl Execution time is: 18446603542379.641 milliseconds 
Matrix multiplication of dimensions 2500 x 2500 x 2500
Matrix multiplication runtime: 0.000408 seconds
-------------------------------------------------------------
Time start 140737488.342864 
Time end 206158.430216 
OpenCl Execution time is: 18446603542379.641 milliseconds 
Matrix multiplication of dimensions 2500 x 2500 x 2500
Matrix multiplication runtime: 0.000369 seconds
-------------------------------------------------------------
Average runtime: 0.033036  GFLOPS: 945.935673
 
 Device is  Tesla K20m  GPU from  NVIDIA Corporation  with a max of 13 compute units 
work group, work item information
 max loc dim  1024  1024  64 
 Max work group size = 1024
This system uses 8 bytes per array element.
-------------------------------------------------------------
Array size = 50000000 (elements), Offset = 0 (elements)
Memory per array = 381.5 MiB (= 0.4 GiB).
Total memory required = 1144.4 MiB (= 1.1 GiB).
Each kernel will be executed 10 times.
 The *best* time for each kernel (excluding the first iteration)
 will be used to compute the reported bandwidth.
-------------------------------------------------------------
Your clock granularity appears to be less than one microsecond.
Each test below will take on the order of 162309 microseconds.
   (= 162309 clock ticks)
Increase the size of the arrays if this shows that
you are not getting at least 20 clock ticks per test.
-------------------------------------------------------------
WARNING -- The above is only a rough guideline.
For best results, please be sure you know the
precision of your system timer.
-------------------------------------------------------------
Function    Best Rate MB/s  Avg time     Min time     Max time
Copy:          105754.0     0.030278     0.030259     0.030357
Scale:         105764.0     0.030259     0.030256     0.030266
Add:           105757.4     0.030289     0.030258     0.030450
Triad:         105694.1     0.030330     0.030276     0.030384
-------------------------------------------------------------
time is 0.228425 sec
pmax = 699.327928
-------------------------------------------------------------
grayscale time is 0.370885 sec
grayscale Gflops is 1.956832 
-------------------------------------------------------------
 10240 work-groups of size 256. 1342177280 Integration steps

The calculation ran in    0.010915 seconds
 pi = 3.141593 for 1342177280 steps
-------------------------------------------------------------
knn time is: 5.368368
-------------------------------------------------------------
Time start 140737488.342864 
Time end 206158.430216 
OpenCl Execution time is: 18446603542379.641 milliseconds 
Matrix multiplication of dimensions 2500 x 2500 x 2500
Matrix multiplication runtime: 0.267187 seconds
-------------------------------------------------------------
Time start 140737488.342864 
Time end 206158.430216 
OpenCl Execution time is: 18446603542379.641 milliseconds 
Matrix multiplication of dimensions 2500 x 2500 x 2500
Matrix multiplication runtime: 0.000394 seconds
-------------------------------------------------------------
Time start 140737488.342864 
Time end 206158.430216 
OpenCl Execution time is: 18446603542379.641 milliseconds 
Matrix multiplication of dimensions 2500 x 2500 x 2500
Matrix multiplication runtime: 0.000385 seconds
-------------------------------------------------------------
Average runtime: 0.089322  GFLOPS: 349.857465
